id,Title,Content,Excerpt,Date,"Post Type",Permalink,"Downloads Categories",Status,"Author ID","Author Username","Author Email","Author First Name","Author Last Name",Slug,Format,Template,Parent,"Parent Slug",Order,"Comment Status","Ping Status","Post Modified Date","Download Title","Download Description","Download URL"
368,"I-9 Audit Survival Guide: What You Need to Know",,,20180531,downloads,http://st03.wpengine.com/blog//downloads/i-9-audit-survival-guide-what-you-need-to-know/,"White Paper",publish,1,wpengine,bitbucket@wpengine.com,,,i-9-audit-survival-guide-what-you-need-to-know,,,0,0,0,closed,closed,20180531,"I-9 Audit Survival Guide: What You Need to Know","Learn everything you need to know about the I-9 audit process, including preparation and remediation, in this guide.",
369,"Marijuana Legalization: Why It’s High Time You Reviewed Your Company’s Drug Policy",,,20180531,downloads,http://st03.wpengine.com/blog//downloads/marijuana-legalization-why-its-high-time-you-reviewed-your-companys-drug-policy/,"White Paper",publish,1,wpengine,bitbucket@wpengine.com,,,marijuana-legalization-why-its-high-time-you-reviewed-your-companys-drug-policy,,,0,0,0,closed,closed,20180531,"Marijuana Legalization: Why It’s High Time You Reviewed Your Company’s Drug Policy","With the onset of marijuana legalization, this white paper walks you through what to think though as you screen your candidate and employees.",
370,"eBook: Background Screening 101",,,20180531,downloads,http://st03.wpengine.com/blog//downloads/ebook-background-screening-101/,E-Book,publish,1,wpengine,bitbucket@wpengine.com,,,ebook-background-screening-101,,,0,0,0,closed,closed,20180531,"eBook: Background Screening 101","Find out everything you want to know about background screening in this comprehensive eBook.",
371,"Background Screening Trends & Best Practices Report 2015",,,20180531,downloads,http://st03.wpengine.com/blog//downloads/background-screening-trends-best-practices-report-2015/,"Trend Report",publish,1,wpengine,bitbucket@wpengine.com,,,background-screening-trends-best-practices-report-2015,,,0,0,0,closed,closed,20180531,"Background Screening Trends & Best Practices Report 2015","Explore current trends, best practices, compliance concerns and emerging threats that impact hiring programs in our exclusive report.",
372,"Danger in the Details: Form I-9 Mistakes That Can Cost You",,,20180531,downloads,http://st03.wpengine.com/blog//downloads/danger-in-the-details-form-i-9-mistakes-that-can-cost-you/,"White Paper",publish,1,wpengine,bitbucket@wpengine.com,,,danger-in-the-details-form-i-9-mistakes-that-can-cost-you,,,0,0,0,closed,closed,20180531,"Danger in the Details: Form I-9 Mistakes That Can Cost You","In this white paper, we examine I-9 violations and provide you with tips to prevent your company from making the same mistakes.",
373,"Fingerprints vs. Name-Based Background Checks: And The Winner Is…",,,20180531,downloads,http://st03.wpengine.com/blog//downloads/fingerprints-vs-name-based-background-checks-and-the-winner-is/,"White Paper",publish,1,wpengine,bitbucket@wpengine.com,,,fingerprints-vs-name-based-background-checks-and-the-winner-is,,,0,0,0,closed,closed,20180531,"Fingerprints vs. Name-Based Background Checks: And The Winner Is…","Get a side-by-side comprehensive comparison of name-based and fingerprint-based background checks. See the winner now.",
374,"Age of the Millennials: 7 Tips for Screening an Emerging Generation",,,20180531,downloads,http://st03.wpengine.com/blog//downloads/age-of-the-millennials-7-tips-for-screening-an-emerging-generation/,"White Paper",publish,1,wpengine,bitbucket@wpengine.com,,,age-of-the-millennials-7-tips-for-screening-an-emerging-generation,,,0,0,0,closed,closed,20180531,"Age of the Millennials: 7 Tips for Screening an Emerging Generation","Millennials are the biggest generation in the US workforce. Explore the six best practices to improve their screening processes and minimize legal risk.",
375,"Research Report: Employment Background Checks: Survey of American Citizens",,,20180531,downloads,http://st03.wpengine.com/blog//downloads/research-report-employment-background-checks-survey-of-american-citizens/,"White Paper",publish,1,wpengine,bitbucket@wpengine.com,,,research-report-employment-background-checks-survey-of-american-citizens,,,0,0,0,closed,closed,20180531,"Research Report: Employment Background Checks: Survey of American Citizens","We surveyed 1,000+ Americans to illuminate how consumers really feels about background screening. Get the results in this study.",
376,"On The Issues: Background Screening & Politics",,,20180531,downloads,http://st03.wpengine.com/blog//downloads/on-the-issues-background-screening-politics/,"White Paper",publish,1,wpengine,bitbucket@wpengine.com,,,on-the-issues-background-screening-politics,,,0,0,0,closed,closed,20180531,"On The Issues: Background Screening & Politics","Get the latest look at background screening within the context of the hottest political topics, including homeland security, gun control, safety and more.",
377,"Ban the Box Is out of Control: What You Need to Know to Protect Your Business",,,20180531,downloads,http://st03.wpengine.com/blog//downloads/ban-the-box-is-out-of-control-what-you-need-to-know-to-protect-your-business/,"White Paper",publish,1,wpengine,bitbucket@wpengine.com,,,ban-the-box-is-out-of-control-what-you-need-to-know-to-protect-your-business,,,0,0,0,closed,closed,20180531,"Ban the Box Is out of Control: What You Need to Know to Protect Your Business","Ban the Box laws can be confusing. Get a clear understanding of what’s at stake and the actions you should consider taking to protect your organization.",
378,"U.S. Background Screening Policy Considerations",,,20180531,downloads,http://st03.wpengine.com/blog//downloads/u-s-background-screening-policy-considerations/,E-Book,publish,1,wpengine,bitbucket@wpengine.com,,,u-s-background-screening-policy-considerations,,,0,0,0,closed,closed,20180531,"U.S. Background Screening Policy Considerations","Creating an employment background screening program can seem complex. Here are 19 items to consider when creating your employee background check policy.",
379,"The Essential Onboarding Checklist for Your New Hire",,,20180601,downloads,http://st03.wpengine.com/blog//downloads/the-essential-onboarding-checklist-for-your-new-hire/,Checklist,publish,1,wpengine,bitbucket@wpengine.com,,,the-essential-onboarding-checklist-for-your-new-hire,,,0,0,0,closed,closed,20180601,"The Essential Onboarding Checklist for Your New Hire","A good onboarding experience is key to employee morale and retention. Explore our comprehensive checklist of to-do items to set the stage for success.",
